<svg width="20" height="24" viewBox="0 0 20 24" version="1.1" xmlns="http://www.w3.org/2000/svg" xmlns:xlink="http://www.w3.org/1999/xlink" xmlns:figma="http://www.figma.com/figma/ns">
<title>Vector</title>
<desc>Created using Figma</desc>
<g id="Canvas" transform="translate(-324 -286)" figma:type="canvas">
<g id="Vector" figma:type="vector">
<mask id="mask0_outline_ins">
<use xlink:href="#path0_fill" fill="white" transform="translate(324 286)"/>
</mask>
<g mask="url(#mask0_outline_ins)">
<use xlink:href="#path1_stroke_2x" transform="translate(324 286)" fill="#2F80ED"/>
</g>
</g>
</g>
<defs>
<path id="path0_fill" d="M 8 24L 0 24L 0 8L 10 0L 20 8L 20 16L 20 24L 12 24L 12 16L 8 16L 8 24Z"/>
<path id="path1_stroke_2x" d="M 0 24L -1 24L -1 25L 0 25L 0 24ZM 8 24L 8 25L 9 25L 9 24L 8 24ZM 8 16L 8 15L 7 15L 7 16L 8 16ZM 12 16L 13 16L 13 15L 12 15L 12 16ZM 12 24L 11 24L 11 25L 12 25L 12 24ZM 20 24L 20 25L 21 25L 21 24L 20 24ZM 20 8L 21 8L 21 7.51938L 20.6247 7.21913L 20 8ZM 10 0L 10.6247 -0.780869L 10 -1.28062L 9.37531 -0.780869L 10 0ZM 0 8L -0.624695 7.21913L -1 7.51938L -1 8L 0 8ZM 0 25L 8 25L 8 23L 0 23L 0 25ZM 9 24L 9 16L 7 16L 7 24L 9 24ZM 8 17L 12 17L 12 15L 8 15L 8 17ZM 11 16L 11 24L 13 24L 13 16L 11 16ZM 12 25L 20 25L 20 23L 12 23L 12 25ZM 21 24L 21 16L 19 16L 19 24L 21 24ZM 21 16L 21 8L 19 8L 19 16L 21 16ZM 20.6247 7.21913L 10.6247 -0.780869L 9.37531 0.780869L 19.3753 8.78087L 20.6247 7.21913ZM 9.37531 -0.780869L -0.624695 7.21913L 0.624695 8.78087L 10.6247 0.780869L 9.37531 -0.780869ZM -1 8L -1 24L 1 24L 1 8L -1 8Z"/>
</defs>
</svg>
